2021/2/15 下午 03:42:02	此記錄包含使用者 'Susan 將指令碼 '匯入SQL.sql' 匯入電腦 'DESKTOP-6ME15FO' 上專案 'SCASP' 的匯入作業相關資訊。
2021/2/15 下午 03:42:02	開始匯入檔案: C:\Users\Susan\Desktop\匯入SQL.sql
2021/2/15 下午 03:42:02	檔案名稱 C:\Users\Susan\Desktop\匯入SQL.sql (大小: 5041)
2021/2/15 下午 03:42:02	正在剖析匯入指令碼
2021/2/15 下午 03:42:02	指令碼中的批次總數: 33
2021/2/15 下午 03:42:02	指令碼中的陳述式總數: 17
2021/2/15 下午 03:42:02	指令碼已成功匯入專案。
2021/2/15 下午 03:42:02	正在分析結構描述物件...
2021/2/15 下午 03:42:02	正在掃描專案的重複項目
2021/2/15 下午 03:42:02	完成複製項目處理
2021/2/15 下午 03:42:02	在您提供給匯入作業的指令碼中，有一個或多個陳述式無法完全了解。這些陳述式已移到 ScriptsIgnoredOnImport.sql 檔案。如需詳細資訊，請參閱此檔案。
2021/2/15 下午 03:42:02	匯入的摘要已儲存到下列位置: C:\Project\SCASP\匯入指令碼記錄\匯入SQL_sql_20210215074202.log
2021/2/15 下午 03:42:02	按 [完成] 繼續進行...
